   4.0000000e+00  -4.0000000e+00  -3.0000000e+00  -8.0000000e+00   1.1000000e+01
   4.3019608e+00  -5.7450980e+00   2.4274510e+00   3.5411765e+00  -4.5254902e+00
   4.3843137e+00  -1.2627451e+00   1.1882353e+00  -6.0549020e+00   1.7450980e+00
   5.7254902e+00  -1.5411765e+00   2.3333333e+00  -3.0274510e+00  -3.4901961e+00
   3.0196078e+00  -5.6078431e-01   4.5803922e+00  -2.3686275e+00  -4.6705882e+00
  -1.7568627e+00   2.1568627e-01   4.8235294e+00  -1.0549020e+00  -2.2274510e+00
   4.7450980e-01  -2.3490196e+00   5.7882353e+00   1.2627451e+00  -5.1764706e+00
   1.5725490e+00  -5.9333333e+00   8.2549020e+00  -2.4666667e+00  -1.4274510e+00
   6.2745098e-02  -1.8235294e+00  -1.3490196e+00  -5.9215686e-01   3.7019608e+00
   7.1490196e+00   1.1882353e+00  -3.3490196e+00  -3.0078431e+00  -1.9803922e+00
   6.8431373e+00   1.8392157e+00   1.5921569e+00  -5.7529412e+00  -4.5215686e+00
  -2.1960784e+00   1.9490196e+00   5.0000000e+00   3.1372549e-02  -4.7843137e+00
   1.3725490e-01  -1.0705882e+00   6.0823529e+00  -3.1882353e+00  -1.9607843e+00
  -1.0266667e+01   4.4784314e+00   5.8823529e+00  -5.3254902e+00   5.2313725e+00
  -8.0705882e+00  -2.9098039e+00   8.4235294e+00  -1.2156863e-01   2.6784314e+00
  -8.1686275e+00   3.2823529e+00   2.2588235e+00  -2.4039216e+00   5.0313725e+00
  -3.9803922e+00   1.7058824e+00  -6.3137255e-01   3.8274510e+00  -9.2156863e-01
   2.6156863e+00   1.4509804e-01  -6.2235294e+00  -2.5411765e+00   6.0039216e+00
   8.6627451e+00  -1.8627451e+00  -4.5960784e+00  -1.3098039e+00  -8.9411765e-01
   4.0039216e+00  -4.5254902e+00   4.0000000e-01   3.0039216e+00  -2.8823529e+00
  -4.4313725e-01  -1.0552941e+01   1.8980392e+00   5.3490196e+00   3.7490196e+00
  -4.8705882e+00  -8.0431373e+00   1.2862745e+00   1.4321569e+01  -2.6941176e+00
  -2.6039216e+00  -5.0274510e+00   1.5372549e+00   2.0941176e+00   4.0000000e+00
   3.0941176e+00   6.9098039e+00  -3.4862745e+00   6.0392157e-01  -7.1215686e+00
   6.0313725e+00  -4.9607843e+00  -2.3803922e+00  -1.8588235e+00   3.1686275e+00
  -6.1725490e+00   1.0976471e+01  -9.0274510e+00  -9.1803922e+00   1.3403922e+01
  -5.3490196e+00   7.0000000e+00  -9.7098039e+00  -6.0627451e+00   1.4121569e+01
   3.0470588e+00  -2.0392157e+00  -1.0082353e+01   7.2000000e+00   1.8745098e+00
  -3.8901961e+00  -6.1960784e+00  -8.6313725e+00   1.2866667e+01   5.8509804e+00
  -5.5058824e+00  -6.9137255e+00  -4.9607843e+00   8.1803922e+00   9.2000000e+00
  -1.8862745e+00  -2.7450980e-01  -5.7058824e+00   5.5333333e+00   2.3333333e+00
   5.0509804e+00   8.6666667e+00  -9.2980392e+00   5.8431373e+00  -1.0262745e+01
   8.7764706e+00   2.6823529e+00  -2.8980392e+00   2.6588235e+00  -1.1219608e+01
  -5.9137255e+00   8.4078431e+00  -6.9098039e+00  -1.3419608e+01   1.7835294e+01
  -2.0862745e+00   7.3607843e+00  -1.2356863e+01  -3.8392157e+00   1.0921569e+01
   4.4705882e-01  -2.1882353e+00  -9.1490196e+00   4.4313725e+00   6.4588235e+00
   5.7647059e-01  -1.0603922e+01  -7.8862745e+00   1.2027451e+01   5.8862745e+00
  -7.4078431e+00  -9.1372549e+00  -6.1490196e+00   1.0070588e+01   1.2623529e+01
  -7.1764706e+00   4.9411765e+00  -9.9529412e+00   6.8745098e+00   5.3137255e+00
   3.2392157e+00   9.3568627e+00  -1.3227451e+01   9.3764706e+00  -8.7450980e+00
   7.7921569e+00   7.6862745e+00  -1.0745098e+00   2.4745098e+00  -1.6878431e+01
  -3.4509804e-01   3.4823529e+00  -1.8470588e+00  -1.1729412e+01   1.0439216e+01
   2.3882353e+00   6.6588235e+00  -5.5019608e+00   2.2666667e+00  -5.8117647e+00
   7.4509804e-01  -1.1333333e+00   6.0392157e-01   5.2117647e+00  -5.4274510e+00
  -7.0823529e+00  -1.0835294e+01   7.7686275e+00   9.7647059e+00   3.8431373e-01
  -1.1172549e+01  -5.0941176e+00   5.3294118e+00   9.9686275e+00   9.6862745e-01
  -1.0835294e+01   1.0254902e+01  -2.5215686e+00   2.5764706e+00   5.2549020e-01
  -4.2352941e+00   9.2980392e+00  -3.5764706e+00   5.0509804e+00  -6.5372549e+00
   3.1098039e+00  -3.9215686e-03  -5.8039216e-01   4.3137255e-02  -2.5686275e+00
   1.2615686e+01  -2.8784314e+00   1.3529412e+00  -7.1058824e+00  -3.9843137e+00
   9.4941176e+00   3.5294118e+00   1.4470588e+00  -1.0494118e+01  -3.9764706e+00
  -4.6274510e+00   8.4156863e+00   5.7882353e+00  -1.9686275e+00  -7.6078431e+00
  -5.6588235e+00   4.2745098e+00   7.5137255e+00  -1.2274510e+00  -4.9019608e+00
  -8.5215686e+00   1.2039216e+00   8.6039216e+00  -1.3254902e+00   3.9215686e-02
  -1.0235294e+01   4.7215686e+00   6.9372549e+00   8.6666667e-01  -2.2901961e+00
  -7.5529412e+00   1.9843137e+00   1.8549020e+00  -4.1372549e+00   7.8509804e+00
   5.0980392e-01  -2.2941176e+00   2.2941176e+00   4.5294118e+00  -5.0392157e+00
   4.0392157e+00  -5.9215686e+00   3.9803922e+00   2.9882353e+00  -5.0862745e+00
   3.9176471e+00   4.0431373e+00   5.8823529e-02  -3.2784314e+00  -4.7411765e+00
   4.0627451e+00   1.3019608e+00   1.0196078e+00  -2.0156863e+00  -4.3686275e+00
  -1.4235294e+00   4.1098039e+00   3.2509804e+00  -3.7333333e+00  -2.2039216e+00
  -6.2352941e-01   1.5686275e-01   4.3960784e+00  -4.7960784e+00   8.6666667e-01
   1.4862745e+00   1.6941176e+00   4.5137255e+00  -4.9098039e+00  -2.7843137e+00
  -5.3725490e-01   1.3529412e+00   2.6862745e+00   5.9607843e-01  -4.0980392e+00
   1.4941176e+00  -8.5411765e+00   2.8509804e+00  -4.1215686e+00   8.3176471e+00
